wokwi-logic.vcd
$version Generated by Wokwi.com $end
$date Wed, 29 Oct 2025 21:27:59 GMT $end
$timescale 1ns $end
$scope module logic $end
$var wire 1 ! D0 $end
$var wire 1 " D1 $end
$var wire 1 # D2 $end
$var wire 1 $ D3 $end
$upscope $end
$enddefinitions $end
#0
0!
#0
1"
#0
1#
#0
1$
#421412644
0#
#421432144
0$
#421650856
1!
#422925500
0!
#423344238
0"
#423384300
1"
#423394625
0"
#431123594
1#
#434481688
0#
#439922981
1"
#439933306
0"
#459923519
1"
#459933844
0"
#479923519
1"
#479933844
0"
#499923519
1"
#499933844
0"
#519923519
1"
#519933844
0"
#539923519
1"
#539933844
0"
#559923519
1"
#559933844
0"
#579923519
1"
#579933844
0"
#599923519
1"
#599933844
0"
#619923519
1"
#619933844
0"
#639923519
1"
#639933844
0"
#659923519
1"
#659933844
0"
#679923519
1"
#679933844
0"
#699923519
1"
#699933844
0"
#719923519
1"
#719933844
0"
#739923519
1"
#739933844
0"
#759923519
1"
#759933844
0"
#779923519
1"
#779933844
0"
#799923519
1"
#799933844
0"
#819923519
1"
#819933844
0"
#839923519
1"
#839933844
0"
#859923519
1"
#859933844
0"
#879923519
1"
#879933844
0"
#899923519
1"
#899933844
0"
#919924138
1"
#919934463
0"
#919956463
1!
#939923519
1"
#939933844
0"
#959923519
1"
#959933844
0"
#979923519
1"
#979933844
0"
#999923519
1"
#999933844
0"
#1019923519
1"
#1019933844
0"
#1039923519
1"
#1039933844
0"
#1059923519
1"
#1059933844
0"
#1079923519
1"
#1079933844
0"
#1099923519
1"
#1099933844
0"
#1119923519
1"
#1119933844
0"
#1139923519
1"
#1139933844
0"
#1159923519
1"
#1159933844
0"
#1179923519
1"
#1179933844
0"
#1199923519
1"
#1199933844
0"
#1219923519
1"
#1219933844
0"
#1239923519
1"
#1239933844
0"
#1259923519
1"
#1259933844
0"
#1279923519
1"
#1279933844
0"
#1299923519
1"
#1299933844
0"
#1319923519
1"
#1319933844
0"
#1339923519
1"
#1339933844
0"
#1359923519
1"
#1359933844
0"
#1379923519
1"
#1379933844
0"
#1399923519
1"
#1399933844
0"
#1419924138
1"
#1419934463
0"
#1419956463
0!
#1429935969
1#
#1433205606
0#
#1439923519
1"
#1439933844
0"
#1459923519
1"
#1459933844
0"
#1479923519
1"
#1479933844
0"
#1499923519
1"
#1499933844
0"
#1519923519
1"
#1519933844
0"
#1539923519
1"
#1539933844
0"
#1559923519
1"
#1559933844
0"
#1579923519
1"
#1579933844
0"
#1599923519
1"
#1599933844
0"
#1619923519
1"
#1619933844
0"
#1639923519
1"
#1639933844
0"
#1659923519
1"
#1659933844
0"
#1679923519
1"
#1679933844
0"
#1699923519
1"
#1699933844
0"
#1719923519
1"
#1719933844
0"
#1739923519
1"
#1739933844
0"
#1759923519
1"
#1759933844
0"
#1779923519
1"
#1779933844
0"
#1799923519
1"
#1799933844
0"
#1819923519
1"
#1819933844
0"
#1839923519
1"
#1839933844
0"
#1859923519
1"
#1859933844
0"
#1879923519
1"
#1879933844
0"
#1899923519
1"
#1899933844
0"
#1919924138
1"
#1919934463
0"
#1919956456
1!
#1939923519
1"
#1939933844
0"
#1959923519
1"
#1959933844
0"
#1979923519
1"
#1979933844
0"
#1999923519
1"
#1999933844
0"
#2019923519
1"
#2019933844
0"
#2039923519
1"
#2039933844
0"
#2059923519
1"
#2059933844
0"
#2079923519
1"
#2079933844
0"
#2099923519
1"
#2099933844
0"
#2119923519
1"
#2119933844
0"
#2139923519
1"
#2139933844
0"
#2159923519
1"
#2159933844
0"
#2179923519
1"
#2179933844
0"
#2199923519
1"
#2199933844
0"
#2219923519
1"
#2219933844
0"
#2239923519
1"
#2239933844
0"
#2259923519
1"
#2259933844
0"
#2279923519
1"
#2279933844
0"
#2299923519
1"
#2299933844
0"
#2319923519
1"
#2319933844
0"
#2339923519
1"
#2339933844
0"
#2359923519
1"
#2359933844
0"
#2379923519
1"
#2379933844
0"
#2399923519
1"
#2399933844
0"
#2419924138
1"
#2419934463
0"
#2419956463
0!
#2429935969
1#
#2433205606
0#
#2439923519
1"
#2439933844
0"
#2459923519
1"
#2459933844
0"
#2479923519
1"
#2479933844
0"
#2499923519
1"
#2499933844
0"
#2519923519
1"
#2519933844
0"
#2539923519
1"
#2539933844
0"
#2559923519
1"
#2559933844
0"
#2579923519
1"
#2579933844
0"
#2599923519
1"
#2599933844
0"
#2619923519
1"
#2619933844
0"
#2639923519
1"
#2639933844
0"
#2659923519
1"
#2659933844
0"
#2679923519
1"
#2679933844
0"
#2699923519
1"
#2699933844
0"
#2719923519
1"
#2719933844
0"
#2739923519
1"
#2739933844
0"
#2741020769
1$
#2742542438
0$
#2759923519
1"
#2759933844
0"
#2761020756
1$
#2762328338
0$
#2779923519
1"
#2779933844
0"
#2780373338
1$
#2781592169
0$
#2799923519
1"
#2799933844
0"
#2800373338
1$
#2801592169
0$
#2819923519
1"
#2819933844
0"
#2820373338
1$
#2821592169
0$
#2839923519
1"
#2839933844
0"
#2840373338
1$
#2841592169
0$
#2859923519
1"
#2859933844
0"
#2860373338
1$
#2861592169
0$
#2879923519
1"
#2879933844
0"
#2880373338
1$
#2881592169
0$
#2899923519
1"
#2899933844
0"
#2900373338
1$
#2901592169
0$
#2919924138
1"
#2919934463
0"
#2919956456
1!
#2920373731
1$
#2921577313
0$
#2939923519
1"
#2939933844
0"
#2940373338
1$
#2941626794
0$
#2959923519
1"
#2959933844
0"
#2960373338
1$
#2961626794
0$
#2979923519
1"
#2979933844
0"
#2980373338
1$
#2981626794
0$
#2999923519
1"
#2999933844
0"
#3000373338
1$
#3001626794
0$
#3019923519
1"
#3019933844
0"
#3020373338
1$
#3021626794
0$
#3039923519
1"
#3039933844
0"
#3040373338
1$
#3041626794
0$
#3059923519
1"
#3059933844
0"
#3060373338
1$
#3061626794
0$
#3079923519
1"
#3079933844
0"
#3080373338
1$
#3081626794
0$
#3099923519
1"
#3099933844
0"
#3100373338
1$
#3101626794
0$
#3119923519
1"
#3119933844
0"
#3120373338
1$
#3121626794
0$
#3139923519
1"
#3139933844
0"
#3140373338
1$
#3141626794
0$
#3159923519
1"
#3159933844
0"
#3160373338
1$
#3161626794
0$
#3179923519
1"
#3179933844
0"
#3180373338
1$
#3181626794
0$
#3199923519
1"
#3199933844
0"
#3200373338
1$
#3201626794
0$
#3219923519
1"
#3219933844
0"
#3220727488
1$
#3221975444
0$
#3239923519
1"
#3239933844
0"
#3241432263
1$
#3242762469
0$
#3259923519
1"
#3259933844
0"
#3261432263
1$
#3262762469
0$
#3279923519
1"
#3279933844
0"
#3281844950
1$
#3283166156
0$
#3299923519
1"
#3299933844
0"
#3319923519
1"
#3319933844
0"
#3339923519
1"
#3339933844
0"
#3359923519
1"
#3359933844
0"
#3379923519
1"
#3379933844
0"
#3399923519
1"
#3399933844
0"
#3419924138
1"
#3419934463
0"
#3419956463
0!
#3429935969
1#
#3433981481
0#
#3439923519
1"
#3439933844
0"
#3459923519
1"
#3459933844
0"
#3479923519
1"
#3479933844
0"
#3499923519
1"
#3499933844
0"
#3519923519
1"
#3519933844
0"
#3539923519
1"
#3539933844
0"
#3559923519
1"
#3559933844
0"
#3579923519
1"
#3579933844
0"
#3599923519
1"
#3599933844
0"
#3619923519
1"
#3619933844
0"
#3639923519
1"
#3639933844
0"
#3659923519
1"
#3659933844
0"
#3679923519
1"
#3679933844
0"
#3699923519
1"
#3699933844
0"
#3719923519
1"
#3719933844
0"
#3739923519
1"
#3739933844
0"
#3759923519
1"
#3759933844
0"
#3779923519
1"
#3779933844
0"
#3799923519
1"
#3799933844
0"
#3819923519
1"
#3819933844
0"
#3839923519
1"
#3839933844
0"
#3859923519
1"
#3859933844
0"
#3879923519
1"
#3879933844
0"
#3899923519
1"
#3899933844
0"
#3919924138
1"
#3919934463
0"
#3919956456
1!
#3939923519
1"
#3939933844
0"
#3959923519
1"
#3959933844
0"
#3979923519
1"
#3979933844
0"
#3999923519
1"
#3999933844
0"
#4019923519
1"
#4019933844
0"
#4039923519
1"
#4039933844
0"
#4059923519
1"
#4059933844
0"
#4079923519
1"
#4079933844
0"
#4099923519
1"
#4099933844
0"
#4119923519
1"
#4119933844
0"
#4139923519
1"
#4139933844
0"
#4159923519
1"
#4159933844
0"
#4179923519
1"
#4179933844
0"
#4199923519
1"
#4199933844
0"
#4219923519
1"
#4219933844
0"
#4239923519
1"
#4239933844
0"
#4259923519
1"
#4259933844
0"
#4279923519
1"
#4279933844
0"
#4299923519
1"
#4299933844
0"
#4319923519
1"
#4319933844
0"
#4339923519
1"
#4339933844
0"
#4359923519
1"
#4359933844
0"
#4379923519
1"
#4379933844
0"
#4399923519
1"
#4399933844
0"
#4419924138
1"
#4419934463
0"
#4419956463
0!
#4429935969
1#
#4433981481
0#
#4439923519
1"
#4439933844
0"
#4459923519
1"
#4459933844
0"
#4479923519
1"
#4479933844
0"
#4499923519
1"
#4499933844
0"
#4519923519
1"
#4519933844
0"
#4539923519
1"
#4539933844
0"
#4559923519
1"
#4559933844
0"
#4579923519
1"
#4579933844
0"
#4599923519
1"
#4599933844
0"
#4619923519
1"
#4619933844
0"
#4639923519
1"
#4639933844
0"
#4659923519
1"
#4659933844
0"
#4679923519
1"
#4679933844
0"
#4699923519
1"
#4699933844
0"
#4719923519
1"
#4719933844
0"
#4739923519
1"
#4739933844
0"
#4759923519
1"
#4759933844
0"
#4779923519
1"
#4779933844
0"
#4799923519
1"
#4799933844
0"
#4819923519
1"
#4819933844
0"
#4839923519
1"
#4839933844
0"
#4859923519
1"
#4859933844
0"
#4879923519
1"
#4879933844
0"
#4899923519
1"
#4899933844
0"
#4919924138
1"
#4919934463
0"
#4919956456
1!
#4939923519
1"
#4939933844
0"
#4959923519
1"
#4959933844
0"
#4979923519
1"
#4979933844
0"
#4999923519
1"
#4999933844
0"
#5019923519
1"
#5019933844
0"
#5039923519
1"
#5039933844
0"
#5059923519
1"
#5059933844
0"
#5079923519
1"
#5079933844
0"
#5099923519
1"
#5099933844
0"
#5119923519
1"
#5119933844
0"
#5139923519
1"
#5139933844
0"
#5159923519
1"
#5159933844
0"
#5179923519
1"
#5179933844
0"
#5199923519
1"
#5199933844
0"
#5219923519
1"
#5219933844
0"
#5239923519
1"
#5239933844
0"
#5259923519
1"
#5259933844
0"
#5279923519
1"
#5279933844
0"
#5299923519
1"
#5299933844
0"
#5315855958
0!
#9316210738
0!
